{
  "case_studies": [
    {
      "teaser": "",
      "hero_image": "https://raw.githubusercontent.com/theappbusiness/engineering-challenge/main/endpoints/v1/images/decelerator_header-image-2x.jpg"
    },
    {

      "teaser": "teaser2",
      "hero_image": "https://raw.githubusercontent.com/theappbusiness/engineering-challenge/main/endpoints/v1/images/rdg_hero_image_1400x520-x2.png"
    }
  ]
}
